東京都の電力需要予測
…
ele2017<-read_csv("juyo-2017.csv",skip = 2 ,locale = locale(encoding = "Shift_JIS"))
ele2018<-read_csv("juyo-2018.csv",skip = 2 ,locale = locale(encoding = "Shift_JIS"))
ele2019<-read_csv("juyo-2019.csv",skip = 2 ,locale = locale(encoding = "Shift_JIS"))
ele2020<-read_csv("juyo-2020.csv",skip = 2 ,locale = locale(encoding = "Shift_JIS"))
ele2021<-read_csv("juyo-2021.csv",skip = 2 ,locale = locale(encoding = "Shift_JIS"))

処理したデータの結合

bind_rowsを使ってデータの結合を行った。そして、作られたデータを示す。

data<-bind_rows(ele2017,ele2018,ele2019,ele2020,ele2021)
data

## # A tibble: 43,824 × 3
##    DATE     TIME   `実績(万kW)`
##    <chr>    <time>        <dbl>
##  1 2017/1/1 00:00          2783
##  2 2017/1/1 01:00          2634
##  3 2017/1/1 02:00          2520
##  4 2017/1/1 03:00          2438
##  5 2017/1/1 04:00          2389
##  6 2017/1/1 05:00          2394
##  7 2017/1/1 06:00          2491
##  8 2017/1/1 07:00          2626
##  9 2017/1/1 08:00          2715
## 10 2017/1/1 09:00          2637
## # ℹ 43,814 more rows

DATEのデータ型の変更

install.packages("lubridate")
library("lubridate")
data1<-data %>% mutate(DATE = ymd(DATE))

問題２

問題1で作ったデータをから一日の電力需要量を求める.この時の結果のデータを示す.

data_all<-data1 %>% group_by(DATE) %>% summarize(elec = sum(`実績(万kW)`))
data_all

## # A tibble: 1,826 × 2
##    DATE        elec
##    <date>     <dbl>
##  1 2017-01-01 62234
##  2 2017-01-02 63592
##  3 2017-01-03 65243
##  4 2017-01-04 71644
##  5 2017-01-05 81938
##  6 2017-01-06 88836
##  7 2017-01-07 85318
##  8 2017-01-08 83725
##  9 2017-01-09 81743
## 10 2017-01-10 86621
## # ℹ 1,816 more rows
…
問題１で作ったデータと気象データの結合

bind_cols(weather_new,data_all)

## New names:
## • `DATE` -> `DATE...1`
## • `DATE` -> `DATE...9`

## # A tibble: 1,826 × 10
##    DATE...1  ave_temp rain_sum shiny ave_humid heigh_temp low_temp weth_for  
##    <chr>        <dbl>    <dbl> <dbl>     <dbl>      <dbl>    <dbl> <chr>     
##  1 2017/1/1       7.4      0     8.9        59       13.8      2   快晴      
##  2 2017/1/2       7.2      0     6.5        65       13.3      3.8 晴一時曇  
##  3 2017/1/3       8        0     8.2        54       13.7      3.5 快晴      
##  4 2017/1/4       8.5      0     8.7        48       14        3.6 快晴      
##  5 2017/1/5       6.7      0     9          39       10.4      3.7 快晴      
##  6 2017/1/6       4.5      0     8.8        48        8.8      1.5 晴一時薄曇
##  7 2017/1/7       4.1      0     8.7        55        8.7      0.1 晴        
##  8 2017/1/8       3.9     20.5   0          76        6        1.6 曇時々雨  
##  9 2017/1/9       7.2      5.5   2.2        85       11.1      3.8 雨後晴    
## 10 2017/1/10      8.1      0     8.9        61       12.7      3.5 快晴      
## # ℹ 1,816 more rows
## # ℹ 2 more variables: DATE...9 <date>, elec <dbl>
…
